// Jest Snapshot v1, https://goo.gl/fbAQLP

exports[`Emoji component Matches the snapshot with label 1`] = `
<span
  aria-hidden="false"
  aria-label="label"
  role="img"
>
  ❤
</span>
`;

exports[`Emoji component Matches the snapshot without label 1`] = `
<span
  aria-hidden="true"
  aria-label=""
  role="img"
>
  ❤
</span>
`;
